<?xml version="1.0" encoding="utf-8"?>
<!-- Generator: Adobe Illustrator 22.1.0, SVG Export Plug-In . SVG Version: 6.00 Build 0)  -->
<svg version="1.1" id="Capa_1" xmlns="http://www.w3.org/2000/svg" xmlns:xlink="http://www.w3.org/1999/xlink" x="0px" y="0px"
	 viewBox="0 0 60 60" style="enable-background:new 0 0 60 60;" xml:space="preserve">
<style type="text/css">
	.st0{fill:#DCD6CD;}
	.st1{fill:#E8E3D9;}
	.st2{fill:#EFEBDE;}
	.st3{fill:#ED7161;}
	.st4{fill:#FFFFFF;}
</style>
<g>
	<g>
		<polygon class="st0" points="1,6 1,45 29,45 57,45 57,6 		"/>
		<path class="st1" d="M32,28.1c-1.6,1.5-4.3,1.5-5.9,0l-2.1-1.8C17.4,32.1,1,45,1,45h21.6h12.8H57c0,0-16.4-12.9-22.9-18.7L32,28.1
			z"/>
		<path class="st2" d="M1,6l25,22.1c1.6,1.5,4.3,1.5,5.9,0L57,6H1z"/>
	</g>
	<g>
		<circle class="st3" cx="47" cy="41" r="12"/>
		<path class="st4" d="M48.4,41l3.5-3.5c0.4-0.4,0.4-1,0-1.4s-1-0.4-1.4,0L47,39.6L43.5,36c-0.4-0.4-1-0.4-1.4,0s-0.4,1,0,1.4
			l3.5,3.5L42,44.5c-0.4,0.4-0.4,1,0,1.4c0.2,0.2,0.5,0.3,0.7,0.3s0.5-0.1,0.7-0.3l3.5-3.5l3.5,3.5c0.2,0.2,0.5,0.3,0.7,0.3
			s0.5-0.1,0.7-0.3c0.4-0.4,0.4-1,0-1.4L48.4,41z"/>
	</g>
</g>
</svg>
