<?xml version="1.0" encoding="utf-8"?>
<!-- Generator: Adobe Illustrator 22.1.0, SVG Export Plug-In . SVG Version: 6.00 Build 0)  -->
<svg version="1.1" id="Capa_1" xmlns="http://www.w3.org/2000/svg" xmlns:xlink="http://www.w3.org/1999/xlink" x="0px" y="0px"
	 viewBox="0 0 60 60" style="enable-background:new 0 0 60 60;" xml:space="preserve">
<style type="text/css">
	.st0{fill:#E9E9E0;}
	.st1{fill:#D9D7CA;}
	.st2{fill:#CC4B4C;}
	.st3{fill:#FFFFFF;}
</style>
<g>
	<path class="st0" d="M39.6,0.5h-31C7.7,0.5,7,1.2,7,2.5v55.9c0,0.4,0.7,1.1,1.6,1.1h42.9c0.9,0,1.6-0.7,1.6-1.1V14.2
		c0-0.7-0.1-1-0.3-1.1L40.3,0.8C40.1,0.6,39.9,0.5,39.6,0.5z"/>
	<polygon class="st1" points="40.2,0.7 40.2,13.1 52.8,13.1 	"/>
	<path class="st2" d="M20.9,35.6L20.9,35.6c-0.4,0-0.7-0.1-1-0.3c-1.1-0.8-1.3-1.7-1.2-2.4c0.2-1.7,2.3-3.5,6.4-5.3
		c1.6-3.5,3.1-7.8,4.1-11.3c-1.1-2.3-2.1-5.3-1.3-7C28.1,8.6,28.4,8.2,29,8c0.2-0.1,0.9-0.2,1.1-0.2c0.5,0,1,0.7,1.3,1.1
		c0.3,0.4,1,1.2-0.4,7.2c1.4,2.9,3.5,5.9,5.4,8c1.4-0.2,2.6-0.4,3.6-0.4c1.7,0,2.7,0.4,3.1,1.2c0.3,0.7,0.2,1.4-0.4,2.3
		c-0.6,0.8-1.4,1.3-2.4,1.3c-1.3,0-2.8-0.8-4.5-2.4c-3,0.6-6.6,1.7-9.4,3c-0.9,1.9-1.8,3.4-2.5,4.5C22.8,34.9,21.9,35.6,20.9,35.6z
		 M23.8,30.2c-2.3,1.3-3.2,2.3-3.3,2.9c0,0.1,0,0.4,0.5,0.7C21.1,33.8,22,33.4,23.8,30.2z M38.4,25.5c0.9,0.7,1.1,1,1.7,1
		c0.3,0,1,0,1.3-0.5c0.2-0.2,0.2-0.4,0.2-0.4c-0.1-0.1-0.3-0.2-1.3-0.2C39.8,25.4,39.1,25.4,38.4,25.5z M30.4,18.6
		c-0.8,2.6-1.8,5.4-2.9,8c2.2-0.9,4.7-1.6,6.9-2.1C33,22.8,31.6,20.7,30.4,18.6z M29.7,9.7c-0.1,0-1.4,1.9,0.1,3.4
		C30.8,10.8,29.8,9.7,29.7,9.7z"/>
	<path class="st2" d="M51.4,59.5H8.6C7.7,59.5,7,58.8,7,58V41.6h46V58C53,58.8,52.3,59.5,51.4,59.5z"/>
	<g>
		<path class="st3" d="M18.6,56.3h-1.8V45.7H20c0.5,0,0.9,0.1,1.4,0.2s0.9,0.4,1.2,0.6c0.4,0.3,0.6,0.6,0.9,1
			c0.2,0.4,0.3,0.9,0.3,1.4c0,0.5-0.1,1-0.3,1.5s-0.4,0.8-0.8,1.1c-0.3,0.3-0.7,0.5-1.2,0.7c-0.5,0.2-1,0.2-1.6,0.2h-1.3L18.6,56.3
			L18.6,56.3z M18.6,47v4.2h1.6c0.2,0,0.4,0,0.6-0.1c0.2-0.1,0.4-0.2,0.6-0.4c0.2-0.2,0.3-0.4,0.4-0.7s0.2-0.7,0.2-1.1
			c0-0.2,0-0.4-0.1-0.6c0-0.2-0.1-0.4-0.3-0.6c-0.2-0.2-0.4-0.4-0.6-0.5C20.8,47.1,20.4,47,20,47L18.6,47L18.6,47z"/>
		<path class="st3" d="M34.5,50.7c0,0.9-0.1,1.6-0.3,2.2c-0.2,0.6-0.4,1.1-0.7,1.6c-0.3,0.4-0.6,0.7-1,1s-0.7,0.4-1.1,0.5
			c-0.3,0.1-0.7,0.2-0.9,0.2c-0.3,0-0.5,0-0.6,0h-4.1V45.7h3.2c0.9,0,1.7,0.1,2.4,0.4c0.7,0.3,1.3,0.7,1.7,1.1c0.5,0.5,0.8,1,1,1.6
			C34.4,49.5,34.5,50.1,34.5,50.7z M29.3,55.1c1.2,0,2-0.4,2.6-1.1s0.8-1.8,0.8-3.3c0-0.4-0.1-0.9-0.2-1.3c-0.1-0.4-0.3-0.8-0.6-1.2
			c-0.3-0.4-0.7-0.6-1.3-0.9c-0.5-0.2-1.2-0.3-2-0.3h-1v8C27.6,55.1,29.3,55.1,29.3,55.1z"/>
		<path class="st3" d="M38.8,47v3.3h4.5v1.2h-4.5v4.8h-1.8V45.7h6.7V47H38.8z"/>
	</g>
</g>
</svg>
