<?xml version="1.0" encoding="utf-8"?>
<!-- Generator: Adobe Illustrator 22.1.0, SVG Export Plug-In . SVG Version: 6.00 Build 0)  -->
<svg version="1.1" id="Layer_1" xmlns="http://www.w3.org/2000/svg" xmlns:xlink="http://www.w3.org/1999/xlink" x="0px" y="0px"
	 viewBox="0 0 60 60" style="enable-background:new 0 0 60 60;" xml:space="preserve">
<style type="text/css">
	.st0{fill:#C69666;}
	.st1{fill:#E8D5B2;}
	.st2{fill:#CBB292;}
	.st3{fill:#F4D65A;}
</style>
<g>
	<path class="st0" d="M41.2,15.8l-3.1-3.1H29v-2H18.8v2H4.5c-2.2,0-4,1.8-4,4.1v38.7c0,2.2,1.8,4.1,4,4.1h38.7
		c2.2,0,4.1-1.8,4.1-4.1V18.8l-8.1,5.1L41.2,15.8z"/>
	<g>
		<path class="st1" d="M27.5,23.7l-3.6-2.9l-3.6,2.9c-0.6,0.5-1.5,0.1-1.5-0.7V10.7H29V23C29,23.8,28.1,24.2,27.5,23.7"/>
		<polygon class="st1" points="6.6,55.4 20.8,55.4 20.8,43.2 6.6,43.2 		"/>
	</g>
	<g>
		<path class="st2" d="M16.8,48.3h-6.1c-0.6,0-1-0.5-1-1s0.5-1,1-1h6.1c0.6,0,1,0.5,1,1S17.3,48.3,16.8,48.3"/>
		<path class="st2" d="M14.7,52.4h-4.1c-0.6,0-1-0.5-1-1s0.5-1,1-1h4.1c0.6,0,1,0.5,1,1S15.3,52.4,14.7,52.4"/>
	</g>
	<polygon class="st3" points="47.3,0.5 51.2,8.6 59.5,9.7 53.4,15.8 54.4,23.9 47.3,18.8 39.2,23.9 41.2,15.8 35.1,9.7 43.4,8.6 	
		"/>
</g>
</svg>
