<?xml version="1.0" encoding="utf-8"?>
<!-- Generator: Adobe Illustrator 22.1.0, SVG Export Plug-In . SVG Version: 6.00 Build 0)  -->
<svg version="1.1" id="Capa_1" xmlns="http://www.w3.org/2000/svg" xmlns:xlink="http://www.w3.org/1999/xlink" x="0px" y="0px"
	 viewBox="0 0 60 60" style="enable-background:new 0 0 60 60;" xml:space="preserve">
<style type="text/css">
	.st0{fill:#EFEBDE;}
	.st1{fill:#D5D0BB;}
	.st2{fill:#EDDCC7;}
	.st3{fill:#D75A4A;}
	.st4{fill:#F29C21;}
	.st5{fill:#D6C4B1;}
	.st6{fill:#A34740;}
	.st7{fill:#E18C25;}
	.st8{fill:#5E5E5E;}
</style>
<g>
	<g>
		<polygon class="st0" points="46.6,14.6 32.7,0.5 2,0.5 2,58.8 46.6,58.8 		"/>
		<g>
			<path class="st1" d="M11.9,23.6h24.8c0.5,0,1-0.4,1-1s-0.4-1-1-1H11.9c-0.5,0-1,0.4-1,1S11.4,23.6,11.9,23.6z"/>
			<path class="st1" d="M11.9,15.6h9.9c0.5,0,1-0.4,1-1s-0.4-1-1-1h-9.9c-0.5,0-1,0.4-1,1S11.4,15.6,11.9,15.6z"/>
			<path class="st1" d="M36.7,29.6H11.9c-0.5,0-1,0.4-1,1s0.4,1,1,1h24.8c0.5,0,1-0.4,1-1S37.2,29.6,36.7,29.6z"/>
			<path class="st1" d="M36.7,37.7H11.9c-0.5,0-1,0.4-1,1c0,0.6,0.4,1,1,1h24.8c0.5,0,1-0.4,1-1C37.6,38.1,37.2,37.7,36.7,37.7z"/>
			<path class="st1" d="M36.7,45.7H11.9c-0.5,0-1,0.4-1,1c0,0.6,0.4,1,1,1h24.8c0.5,0,1-0.4,1-1C37.6,46.2,37.2,45.7,36.7,45.7z"/>
		</g>
		<polygon class="st1" points="32.7,0.5 32.7,14.6 46.6,14.6 		"/>
	</g>
	<g>
		<polygon class="st2" points="36.8,50 36.8,50 34.8,57.3 39.4,52.6 		"/>
		<path class="st3" d="M55.8,35.9l-1.2-1.3c-0.8-0.8-2-0.8-2.8,0l-3.5,3.6l2.6,2.7L55.8,35.9z"/>
		<polygon class="st4" points="48.3,38.3 50.9,41 39.4,52.6 36.8,50 		"/>
		<polygon class="st5" points="42.4,55.7 42.4,55.6 39.4,52.6 34.8,57.3 34.7,57.8 		"/>
		<path class="st6" d="M53.9,44l3.5-3.6c0.8-0.8,0.8-2,0-2.8l-1.6-1.6l-4.9,5L53.9,44z"/>
		<polygon class="st7" points="42.4,55.6 39.4,52.6 50.9,41 53.9,44 		"/>
		<path class="st8" d="M34,59.5c-0.3,0-0.5-0.1-0.7-0.3c-0.4-0.4-0.4-1,0-1.4l2.2-2.2c0.4-0.4,1-0.4,1.4,0c0.4,0.4,0.4,1,0,1.4
			l-2.2,2.2C34.5,59.4,34.2,59.5,34,59.5z"/>
	</g>
</g>
</svg>
