<?xml version="1.0" encoding="utf-8"?>
<!-- Generator: Adobe Illustrator 22.1.0, SVG Export Plug-In . SVG Version: 6.00 Build 0)  -->
<svg version="1.1" id="Capa_1" xmlns="http://www.w3.org/2000/svg" xmlns:xlink="http://www.w3.org/1999/xlink" x="0px" y="0px"
	 viewBox="0 0 60 60" style="enable-background:new 0 0 60 60;" xml:space="preserve">
<style type="text/css">
	.st0{fill:#88898A;}
</style>
<g>
	<g>
		<g>
			<path class="st0" d="M31,28H12c-0.6,0-1,0.4-1,1c0,0.5,0.4,1,1,1h19c0.6,0,1-0.4,1-1C32,28.5,31.6,28,31,28z"/>
			<path class="st0" d="M31,33H12c-0.6,0-1,0.4-1,1s0.4,1,1,1h19c0.6,0,1-0.4,1-1S31.6,33,31,33z"/>
			<path class="st0" d="M31,37.9H12c-0.6,0-1,0.4-1,1c0,0.5,0.4,1,1,1h19c0.6,0,1-0.4,1-1C32,38.3,31.6,37.9,31,37.9z"/>
			<path class="st0" d="M25,42.8H12c-0.6,0-1,0.4-1,1c0,0.5,0.4,1,1,1h13c0.6,0,1-0.4,1-1C26,43.2,25.6,42.8,25,42.8z"/>
			<path class="st0" d="M25,47.7H12c-0.6,0-1,0.4-1,1s0.4,1,1,1h13c0.6,0,1-0.4,1-1S25.6,47.7,25,47.7z"/>
			<path class="st0" d="M54.6,10.6l-12-9.8c-0.4-0.3-0.9-0.3-1.3,0L32,8.4H8c-1.7,0-3,1.3-3,3v45.2c0,1.6,1.3,2.9,3,3h22
				c0.3,0,0.5-0.1,0.7-0.3l14-13.8l0,0c0.1-0.1,0.1-0.2,0.2-0.3c0,0,0-0.1,0-0.1c0-0.1,0-0.2,0.1-0.3c0,0,0,0,0-0.1v-9.8h2
				c1.7,0,3-1.3,3-3V12.3h4c0.4,0,0.8-0.3,0.9-0.6C55.1,11.3,55,10.8,54.6,10.6z M31,56.1v-9.4c0-0.5,0.4-1,1-1h9.6L31,56.1z
				 M43,43.8H32c-1.7,0-3,1.3-3,3v10.8H8c-0.6,0-1-0.4-1-1V11.3c0-0.5,0.4-1,1-1h21.6l-0.3,0.2c-0.3,0.3-0.4,0.7-0.3,1.1
				c0.1,0.4,0.5,0.6,0.9,0.6h4V32c0,1.6,1.3,2.9,3,3h6L43,43.8L43,43.8z M49,10.3c-0.3,0-0.5,0.1-0.7,0.3c-0.2,0.2-0.3,0.4-0.3,0.7
				V32c0,0.5-0.4,1-1,1H37c-0.6,0-1-0.4-1-1V11.3c0-0.3-0.1-0.5-0.3-0.7c-0.2-0.2-0.4-0.3-0.7-0.3h-2.2L42,2.8l9.2,7.6L49,10.3
				L49,10.3z"/>
		</g>
	</g>
</g>
</svg>
