<?xml version="1.0" encoding="utf-8"?>
<!-- Generator: Adobe Illustrator 22.1.0, SVG Export Plug-In . SVG Version: 6.00 Build 0)  -->
<svg version="1.1" id="Capa_1" xmlns="http://www.w3.org/2000/svg" xmlns:xlink="http://www.w3.org/1999/xlink" x="0px" y="0px"
	 viewBox="0 0 60 60" style="enable-background:new 0 0 60 60;" xml:space="preserve">
<style type="text/css">
	.st0{fill:#F70B0B;}
	.st1{fill:#4A4A49;}
	.st2{fill:#FCFCFC;}
</style>
<g>
	<path class="st0" d="M50.1,7.6l-2,47.7c0,0-0.1,4.1-3.9,4.1H29.5h-0.1H15.8c-3.8,0-3.9-4.1-3.9-4.1l-2-47.7"/>
</g>
<g>
	<path class="st1" d="M39,7.6l-2-0.1c0-0.8-0.2-3.2-1.3-4.4c-0.5-0.5-1.1-0.7-1.8-0.7H24c-0.7,0-1.3,0.2-1.7,0.7
		C21.1,4.3,21,6.7,21,7.5h-2c0-0.2,0-3.8,1.9-5.8c0.8-0.9,1.9-1.3,3.1-1.3h9.9c1.3,0,2.4,0.4,3.1,1.3C39,3.9,39,7.5,39,7.6z"/>
</g>
<g>
	<path class="st2" d="M30,52.3c-0.6,0-1-0.4-1-1V17.7c0-0.6,0.4-1,1-1s1,0.4,1,1v33.5C31,51.9,30.6,52.3,30,52.3z"/>
</g>
<g>
	<path class="st2" d="M20,52.3c-0.6,0-1-0.4-1-1V17.7c0-0.6,0.4-1,1-1s1,0.4,1,1v33.5C21,51.9,20.6,52.3,20,52.3z"/>
</g>
<g>
	<path class="st2" d="M40,52.3c-0.6,0-1-0.4-1-1V17.7c0-0.6,0.4-1,1-1c0.6,0,1,0.4,1,1v33.5C41,51.9,40.6,52.3,40,52.3z"/>
</g>
<g>
	<path class="st1" d="M53,8.6H7c-0.6,0-1-0.4-1-1s0.4-1,1-1h46c0.6,0,1,0.4,1,1S53.6,8.6,53,8.6z"/>
</g>
</svg>
