<?xml version="1.0" encoding="utf-8"?>
<!-- Generator: Adobe Illustrator 22.1.0, SVG Export Plug-In . SVG Version: 6.00 Build 0)  -->
<svg version="1.1" id="Capa_1" xmlns="http://www.w3.org/2000/svg" xmlns:xlink="http://www.w3.org/1999/xlink" x="0px" y="0px"
	 viewBox="0 0 60 60" style="enable-background:new 0 0 60 60;" xml:space="preserve">
<style type="text/css">
	.st0{fill:#88898A;}
</style>
<g>
	<path class="st0" d="M45.2,33.9c-7,0-12.8,5.7-12.8,12.8s5.7,12.8,12.8,12.8S58,53.8,58,46.7S52.3,33.9,45.2,33.9z M45.2,57.5
		c-6,0-10.8-4.9-10.8-10.8s4.9-10.8,10.8-10.8s10.8,4.9,10.8,10.8S51.2,57.5,45.2,57.5z"/>
	<path class="st0" d="M51.1,45.7h-4.9v-4.9c0-0.5-0.4-1-1-1s-1,0.4-1,1v4.9h-4.9c-0.5,0-1,0.4-1,1c0,0.5,0.4,1,1,1h4.9v4.9
		c0,0.5,0.4,1,1,1s1-0.4,1-1v-4.9h4.9c0.5,0,1-0.4,1-1C52.1,46.2,51.7,45.7,51.1,45.7z"/>
	<path class="st0" d="M29.6,47.7H12.8c-0.5,0-1-0.4-1-1s0.4-1,1-1h16.8c0.1-2.1,0.7-4.1,1.6-5.9H12.8c-0.5,0-1-0.4-1-1s0.4-1,1-1
		h19.5c2.8-4.2,7.6-6.9,13-6.9c1,0,2,0.1,3,0.3V14.8L33.8,0.5H2v59h34.1C32.4,56.8,29.9,52.6,29.6,47.7z M32.5,2.5l13.8,13.8H32.5
		V2.5z M12.8,14.3h9.8c0.5,0,1,0.4,1,1s-0.4,1-1,1h-9.8c-0.5,0-1-0.4-1-1S12.2,14.3,12.8,14.3z M12.8,22.1h24.6c0.5,0,1,0.4,1,1
		s-0.4,1-1,1H12.8c-0.5,0-1-0.4-1-1S12.2,22.1,12.8,22.1z M12.8,30h24.6c0.5,0,1,0.4,1,1s-0.4,1-1,1H12.8c-0.5,0-1-0.4-1-1
		S12.2,30,12.8,30z"/>
</g>
</svg>
