<?xml version="1.0" encoding="utf-8"?>
<!-- Generator: Adobe Illustrator 22.1.0, SVG Export Plug-In . SVG Version: 6.00 Build 0)  -->
<svg version="1.1" id="Capa_1" xmlns="http://www.w3.org/2000/svg" xmlns:xlink="http://www.w3.org/1999/xlink" x="0px" y="0px"
	 viewBox="0 0 60 60" style="enable-background:new 0 0 60 60;" xml:space="preserve">
<style type="text/css">
	.st0{fill:#E9E9E0;}
	.st1{fill:#D9D7CA;}
	.st2{fill:#F29C1F;}
	.st3{fill:#FFFFFF;}
</style>
<g>
	<path class="st0" d="M39.6,0.5h-31C7.7,0.5,7,1.2,7,2.5v55.9c0,0.4,0.7,1.1,1.6,1.1h42.9c0.9,0,1.6-0.7,1.6-1.1V14.2
		c0-0.7-0.1-1-0.3-1.1L40.3,0.8C40.1,0.6,39.9,0.5,39.6,0.5z"/>
	<polygon class="st1" points="40.2,0.7 40.2,13.1 52.8,13.1 	"/>
	<path class="st2" d="M51.4,59.5H8.6C7.7,59.5,7,58.8,7,58V41.6h46V58C53,58.8,52.3,59.5,51.4,59.5z"/>
	<g>
		<path class="st3" d="M20.8,51.2l2.7,5.2h-2l-1.7-4h-0.1l-1.8,4h-2l2.7-5.2l-2.9-5.5h2l1.9,4.3h0.1l2.1-4.3h2L20.8,51.2z"/>
		<path class="st3" d="M34.3,45.7h1.8v10.6h-1.8V49l-2.4,5.9h-1.6L27.9,49v7.3h-1.8V45.7h1.8l3.2,7.3L34.3,45.7z"/>
		<path class="st3" d="M40.6,45.7V55h5v1.3h-6.7V45.7H40.6z"/>
	</g>
	<path class="st2" d="M16.6,25.8c-0.3,0-0.5-0.1-0.8-0.3c-0.4-0.4-0.4-1.1,0-1.5l6.4-6.3c0.4-0.4,1.1-0.4,1.5,0
		c0.4,0.4,0.4,1.1,0,1.5l-6.4,6.3C17.2,25.7,16.9,25.8,16.6,25.8z"/>
	<path class="st2" d="M23,32.1c-0.3,0-0.5-0.1-0.8-0.3l-6.4-6.3c-0.4-0.4-0.4-1.1,0-1.5c0.4-0.4,1.1-0.4,1.5,0l6.4,6.3
		c0.4,0.4,0.4,1.1,0,1.5C23.6,32,23.3,32.1,23,32.1z"/>
	<path class="st2" d="M35.9,32.1c-0.3,0-0.5-0.1-0.8-0.3c-0.4-0.4-0.4-1.1,0-1.5l6.4-6.3c0.4-0.4,1.1-0.4,1.5,0s0.4,1.1,0,1.5
		l-6.4,6.3C36.4,32,36.2,32.1,35.9,32.1z"/>
	<path class="st2" d="M42.3,25.8c-0.3,0-0.5-0.1-0.8-0.3l-6.4-6.3c-0.4-0.4-0.4-1.1,0-1.5s1.1-0.4,1.5,0l6.4,6.3
		c0.4,0.4,0.4,1.1,0,1.5C42.9,25.7,42.6,25.8,42.3,25.8z"/>
	<path class="st2" d="M26.3,34.2c-0.1,0-0.2,0-0.4-0.1c-0.6-0.2-0.8-0.8-0.7-1.3l6.4-17.9c0.2-0.5,0.8-0.8,1.4-0.6
		c0.6,0.2,0.8,0.8,0.7,1.3l-6.4,17.9C27.1,33.9,26.7,34.2,26.3,34.2z"/>
</g>
</svg>
