<?xml version="1.0" encoding="utf-8"?>
<!-- Generator: Adobe Illustrator 22.1.0, SVG Export Plug-In . SVG Version: 6.00 Build 0)  -->
<svg version="1.1" id="Capa_1" xmlns="http://www.w3.org/2000/svg" xmlns:xlink="http://www.w3.org/1999/xlink" x="0px" y="0px"
	 viewBox="0 0 60 60" style="enable-background:new 0 0 60 60;" xml:space="preserve">
<style type="text/css">
	.st0{fill:#88898A;}
	.st1{fill:#FFFFFF;}
</style>
<circle class="st0" cx="30" cy="30" r="29.5"/>
<path class="st1" d="M10.7,33.1c-1.1,0-2-0.9-2-2c0-7.9,6.4-14.2,14.2-14.2h14.2c1.1,0,2,0.9,2,2c0,1.1-0.9,2-2,2H22.9
	c-5.6,0-10.2,4.6-10.2,10.2C12.7,32.1,11.8,33.1,10.7,33.1z"/>
<path class="st1" d="M27,29c-0.6,0-1.2-0.3-1.6-0.8c-0.7-0.9-0.5-2.2,0.4-2.8l8.9-6.5l-8.9-6.5c-0.9-0.7-1.1-1.9-0.4-2.8
	C26,8.6,27.2,8.4,28.1,9l13.4,9.8l-13.5,9.8C27.8,28.9,27.4,29,27,29z"/>
<path class="st1" d="M36.1,43.2H21.9c-1.1,0-2-0.9-2-2s0.9-2,2-2h14.2c5.6,0,10.2-4.6,10.2-10.2c0-1.1,0.9-2,2-2s2,0.9,2,2
	C50.3,36.8,44,43.2,36.1,43.2z"/>
<path class="st1" d="M32,51.4c-0.4,0-0.8-0.1-1.2-0.4l-13.5-9.8l13.5-9.8c0.9-0.7,2.2-0.5,2.8,0.4c0.7,0.9,0.5,2.2-0.4,2.8l-8.9,6.5
	l8.9,6.5c0.9,0.7,1.1,1.9,0.4,2.8C33.3,51.1,32.7,51.4,32,51.4z"/>
</svg>
