<?xml version="1.0" encoding="utf-8"?>
<!-- Generator: Adobe Illustrator 22.1.0, SVG Export Plug-In . SVG Version: 6.00 Build 0)  -->
<svg version="1.1" id="Capa_1" xmlns="http://www.w3.org/2000/svg" xmlns:xlink="http://www.w3.org/1999/xlink" x="0px" y="0px"
	 viewBox="0 0 60 60" style="enable-background:new 0 0 60 60;" xml:space="preserve">
<style type="text/css">
	.st0{fill:#88898A;}
</style>
<g>
	<path class="st0" d="M53,40.2V14.7c0-0.8-0.1-1.4-0.6-1.8L40.5,1.1c-0.4-0.4-0.9-0.6-1.4-0.6H9.5C8.3,0.5,7,1.4,7,3.5v36.7H53z
		 M38.7,3.9c0-0.5,0.6-0.7,0.9-0.4l10.3,10.3c0.3,0.3,0.1,0.9-0.4,0.9H38.7V3.9z M34.9,19.5c-0.4-0.4-0.4-1,0-1.4
		c0.4-0.4,1-0.4,1.4,0l6.1,6.1c0.4,0.4,0.4,1,0,1.4l-6.1,6.1c-0.2,0.2-0.5,0.3-0.7,0.3c-0.3,0-0.5-0.1-0.7-0.3c-0.4-0.4-0.4-1,0-1.4
		l5.4-5.4L34.9,19.5z M25.5,32.7l6.1-17.3c0.2-0.5,0.8-0.8,1.3-0.6c0.5,0.2,0.8,0.8,0.6,1.3l-6.1,17.3c-0.1,0.4-0.5,0.7-1,0.7
		c-0.1,0-0.2,0-0.3-0.1C25.5,33.8,25.3,33.2,25.5,32.7z M16.5,24.2l6.1-6.1c0.4-0.4,1-0.4,1.4,0c0.4,0.4,0.4,1,0,1.4l-5.4,5.4
		l5.4,5.4c0.4,0.4,0.4,1,0,1.4c-0.2,0.2-0.5,0.3-0.7,0.3c-0.3,0-0.5-0.1-0.7-0.3l-6.1-6.1C16.1,25.2,16.1,24.6,16.5,24.2z"/>
	<path class="st0" d="M7,42.2v15.3c0,1,1.2,2,2.5,2h41c1.3,0,2.5-1,2.5-2V42.2H7z M23.8,55.4h-1.9l-1.6-3.9h-0.1l-1.8,3.9h-1.9
		l2.6-5l-2.8-5.3h1.9l1.8,4.2h0.1l2-4.2H24l-2.8,5.3L23.8,55.4z M35.8,55.4h-1.7v-7.1l-2.3,5.7h-1.5L28,48.4v7.1h-1.7V45.2H28l3.1,7
		l3-7h1.7L35.8,55.4L35.8,55.4z M44.8,55.4h-6.4V45.2h1.7v9h4.7V55.4z"/>
</g>
</svg>
