<?xml version="1.0" encoding="utf-8"?>
<!-- Generator: Adobe Illustrator 22.1.0, SVG Export Plug-In . SVG Version: 6.00 Build 0)  -->
<svg version="1.1" id="Capa_1" xmlns="http://www.w3.org/2000/svg" xmlns:xlink="http://www.w3.org/1999/xlink" x="0px" y="0px"
	 viewBox="0 0 60 60" style="enable-background:new 0 0 60 60;" xml:space="preserve">
<style type="text/css">
	.st0{fill:#88898A;}
</style>
<g>
	<path class="st0" d="M57.9,37l-2.8-2.8c-1.1-1.1-3-1.1-4.2,0L35.8,49.4L33.8,57l-0.5,0.5c-0.4,0.4-0.4,1,0,1.4l0,0l0,0
		c0.2,0.2,0.4,0.3,0.7,0.3c0.3,0,0.5-0.1,0.7-0.3l0.5-0.5l7.6-2.1l15.1-15.1c0.6-0.6,0.9-1.3,0.9-2.1C58.8,38.3,58.5,37.6,57.9,37z
		 M38.1,49.9l10.1-10.1l4.2,4.2L42.3,54.1L38.1,49.9z M37.2,51.8l3.2,3.2L36,56.1L37.2,51.8z M56.5,39.8l-2.8,2.8l-4.2-4.2l2.8-2.8
		c0.4-0.4,1-0.4,1.4,0l2.8,2.8c0.2,0.2,0.3,0.4,0.3,0.7C56.8,39.4,56.7,39.6,56.5,39.8z"/>
	<path class="st0" d="M33.4,47.7H12c-0.5,0-1-0.4-1-1s0.4-1,1-1h23.3l12.1-12.1V14.8L33.1,0.5H1.2v59H30l3.2-11.7L33.4,47.7z
		 M31.7,2.5l13.8,13.8H31.7L31.7,2.5L31.7,2.5z M12,14.3h9.8c0.5,0,1,0.4,1,1s-0.4,1-1,1H12c-0.5,0-1-0.4-1-1S11.5,14.3,12,14.3z
		 M12,22.1h24.6c0.5,0,1,0.4,1,1s-0.4,1-1,1H12c-0.5,0-1-0.4-1-1S11.5,22.1,12,22.1z M12,30h24.6c0.5,0,1,0.4,1,1s-0.4,1-1,1H12
		c-0.5,0-1-0.4-1-1S11.5,30,12,30z M12,37.9h24.6c0.5,0,1,0.4,1,1s-0.4,1-1,1H12c-0.5,0-1-0.4-1-1S11.5,37.9,12,37.9z"/>
</g>
</svg>
