<?xml version="1.0" encoding="utf-8"?>
<!-- Generator: Adobe Illustrator 22.1.0, SVG Export Plug-In . SVG Version: 6.00 Build 0)  -->
<svg version="1.1" id="Capa_1" xmlns="http://www.w3.org/2000/svg" xmlns:xlink="http://www.w3.org/1999/xlink" x="0px" y="0px"
	 viewBox="0 0 60 60" style="enable-background:new 0 0 60 60;" xml:space="preserve">
<style type="text/css">
	.st0{fill:#88898A;}
</style>
<path class="st0" d="M53,6.5H39c-0.1-1.2-0.5-3.4-1.8-4.7c-0.8-0.9-1.9-1.3-3.1-1.3H24c-1.3,0-2.3,0.4-3.1,1.3
	c-1.3,1.4-1.7,3.5-1.8,4.7H7c-0.6,0-1,0.4-1,1s0.4,1,1,1h2l1.9,46c0,1.7,1.1,5,4.9,5h28.3c3.8,0,4.9-3.3,4.9-5l1.9-46h2
	c0.6,0,1-0.4,1-1S53.6,6.5,53,6.5z M21,50.5c0,0.6-0.4,1-1,1s-1-0.4-1-1v-33c0-0.6,0.4-1,1-1s1,0.4,1,1V50.5z M31,50.5
	c0,0.6-0.4,1-1,1s-1-0.4-1-1v-33c0-0.6,0.4-1,1-1s1,0.4,1,1V50.5z M41,50.5c0,0.6-0.4,1-1,1s-1-0.4-1-1v-33c0-0.6,0.4-1,1-1
	s1,0.4,1,1V50.5z M22.3,3.2c0.4-0.5,1-0.7,1.7-0.7h10c0.7,0,1.3,0.2,1.7,0.7c0.8,0.8,1.1,2.3,1.2,3.3H21.1C21.2,5.5,21.5,4,22.3,3.2
	z"/>
</svg>
