<?xml version="1.0" encoding="utf-8"?>
<!-- Generator: Adobe Illustrator 22.1.0, SVG Export Plug-In . SVG Version: 6.00 Build 0)  -->
<svg version="1.1" id="Capa_1" xmlns="http://www.w3.org/2000/svg" xmlns:xlink="http://www.w3.org/1999/xlink" x="0px" y="0px"
	 viewBox="0 0 60 60" style="enable-background:new 0 0 60 60;" xml:space="preserve">
<style type="text/css">
	.st0{fill:#88898A;}
</style>
<g>
	<rect x="15.2" y="15.8" class="st0" width="8.2" height="2"/>
	<rect x="15.2" y="19.8" class="st0" width="8.2" height="2"/>
	<rect x="25.4" y="19.8" class="st0" width="19.4" height="2"/>
	<rect x="25.4" y="32" class="st0" width="19.4" height="2"/>
	<rect x="25.4" y="23.9" class="st0" width="19.4" height="2"/>
	<rect x="15.2" y="23.9" class="st0" width="8.2" height="2"/>
	<rect x="25.4" y="28" class="st0" width="19.4" height="2"/>
	<path class="st0" d="M7,42.2v15.3c0,1,1.2,2,2.5,2h41c1.3,0,2.5-1,2.5-2V42.2H7z M24.8,55.4h-1.9l-1.6-3.9h-0.1l-1.8,3.9h-1.9
		l2.6-5l-2.8-5.3h1.9l1.8,4.2h0.1l2-4.2H25l-2.8,5.3L24.8,55.4z M33.8,55.4h-6.4V45.2H29v9h4.7V55.4z M41.1,53.7
		c-0.2,0.3-0.4,0.7-0.7,0.9c-0.3,0.3-0.6,0.5-1,0.6s-0.9,0.2-1.4,0.2c-0.2,0-0.5,0-0.7,0c-0.2,0-0.5-0.1-0.7-0.1
		c-0.2-0.1-0.5-0.1-0.7-0.2c-0.2-0.1-0.4-0.2-0.6-0.4l0.3-1.2c0.1,0.1,0.3,0.1,0.5,0.2s0.4,0.1,0.6,0.2c0.2,0.1,0.4,0.1,0.6,0.1
		c0.2,0,0.4,0.1,0.6,0.1c0.6,0,1-0.1,1.3-0.4c0.3-0.3,0.5-0.7,0.5-1.2c0-0.3-0.1-0.6-0.3-0.8c-0.2-0.2-0.5-0.4-0.8-0.6
		c-0.3-0.2-0.7-0.4-1-0.5c-0.4-0.2-0.7-0.4-1-0.6c-0.3-0.2-0.6-0.5-0.8-0.9c-0.2-0.3-0.3-0.8-0.3-1.3c0-0.5,0.1-0.9,0.3-1.2
		c0.2-0.4,0.4-0.7,0.7-0.9c0.3-0.2,0.6-0.4,1-0.6c0.4-0.1,0.8-0.2,1.2-0.2c0.4,0,0.9,0,1.3,0.1c0.4,0.1,0.8,0.2,1.1,0.4
		c-0.1,0.1-0.1,0.3-0.2,0.4c-0.1,0.1-0.1,0.3-0.2,0.4c-0.1,0.1-0.1,0.2-0.2,0.3c0,0.1-0.1,0.1-0.1,0.1c-0.1,0-0.1-0.1-0.2-0.1
		s-0.2-0.1-0.3-0.1c-0.1,0-0.3-0.1-0.5-0.1c-0.2,0-0.5,0-0.8,0c-0.2,0-0.4,0.1-0.5,0.2c-0.2,0.1-0.3,0.2-0.4,0.3
		c-0.1,0.1-0.2,0.3-0.3,0.4C37,47.5,37,47.7,37,47.8c0,0.4,0.1,0.7,0.3,0.9c0.2,0.2,0.5,0.4,0.8,0.6c0.3,0.2,0.7,0.3,1,0.5
		c0.4,0.2,0.7,0.4,1,0.6s0.6,0.5,0.8,0.9c0.2,0.3,0.3,0.8,0.3,1.3C41.3,53,41.2,53.4,41.1,53.7z"/>
	<path class="st0" d="M53,40.2V14.7c0-0.8-0.1-1.4-0.6-1.8L40.5,1.1c-0.4-0.4-0.9-0.6-1.4-0.6H9.5C8.3,0.5,7,1.4,7,3.5v36.7H53z
		 M38.7,3.9c0-0.5,0.6-0.7,0.9-0.4l10.3,10.3c0.3,0.3,0.1,0.9-0.4,0.9H38.7V3.9z M13.1,32v-2v-2v-2v-2v-2v-2v-2v-4.1h12.3v4.1h21.5
		v4.1v2v2v2v2v2v4.1H25.4h-2H13.1V32z"/>
	<rect x="15.2" y="28" class="st0" width="8.2" height="2"/>
	<rect x="15.2" y="32" class="st0" width="8.2" height="2"/>
</g>
</svg>
