<?xml version="1.0" encoding="utf-8"?>
<!-- Generator: Adobe Illustrator 22.1.0, SVG Export Plug-In . SVG Version: 6.00 Build 0)  -->
<svg version="1.1" id="Layer_1" xmlns="http://www.w3.org/2000/svg" xmlns:xlink="http://www.w3.org/1999/xlink" x="0px" y="0px"
	 viewBox="0 0 60 60" style="enable-background:new 0 0 60 60;" xml:space="preserve">
<style type="text/css">
	.st0{fill:#88898A;}
</style>
<g>
	<g>
		<g>
			<path class="st0" d="M8.4,53.6h11.8v-9.8H8.4C8.4,43.8,8.4,53.6,8.4,53.6z M11.3,45.7h5.9c0.5,0,1,0.4,1,1s-0.4,1-1,1h-5.9
				c-0.5,0-1-0.4-1-1S10.8,45.7,11.3,45.7z M11.3,49.7h3.9c0.5,0,1,0.4,1,1s-0.4,1-1,1h-3.9c-0.5,0-1-0.4-1-1S10.8,49.7,11.3,49.7z"
				/>
			<path class="st0" d="M24.1,20.2c0.2,0,0.4,0.1,0.6,0.2L28,23V12.3h-7.9V23l3.3-2.7C23.7,20.2,23.9,20.2,24.1,20.2z"/>
			<path class="st0" d="M40.4,26.6c-0.5,0.3-1,0.4-1.6,0.4c-0.6,0-1.2-0.2-1.7-0.6c-1-0.7-1.4-1.9-1.1-3.1l1.6-6.2l-4.7-4.7
				c0,0-0.1-0.1-0.1-0.1H30v10.9c0,0.7-0.4,1.4-1.1,1.7c-0.7,0.3-1.4,0.2-2-0.2l-2.9-2.3l-2.9,2.3c-0.3,0.3-0.8,0.4-1.2,0.4
				c-0.3,0-0.6-0.1-0.8-0.2c-0.7-0.3-1.1-1-1.1-1.7V12.3H5.4c-2.7,0-4.9,2.2-4.9,4.9v37.4c0,2.7,2.2,4.9,4.9,4.9h37.4
				c2.7,0,4.9-2.2,4.9-4.9V23.5l-1.1-0.8L40.4,26.6z M22.1,54.6c0,0.5-0.4,1-1,1H7.4c-0.5,0-1-0.4-1-1V42.8c0-0.5,0.4-1,1-1h13.8
				c0.5,0,1,0.4,1,1V54.6z"/>
			<path class="st0" d="M59.4,10c-0.1-0.4-0.4-0.6-0.8-0.7l-7.5-0.9l-3.5-7.4c-0.2-0.3-0.5-0.6-0.9-0.6c-0.4,0-0.7,0.2-0.9,0.6
				l-3.5,7.4l-7.5,0.9c-0.4,0-0.7,0.3-0.8,0.7c-0.1,0.4,0,0.7,0.2,1l5.5,5.5l-1.8,7.3c-0.1,0.4,0.1,0.8,0.4,1
				c0.2,0.1,0.4,0.2,0.6,0.2c0.2,0,0.4-0.1,0.5-0.1l7.3-4.6l6.3,4.5c0.3,0.2,0.7,0.2,1.1,0c0.3-0.2,0.5-0.6,0.5-1l-0.9-7.4l5.6-5.6
				C59.5,10.8,59.6,10.4,59.4,10z"/>
		</g>
	</g>
</g>
</svg>
