<?xml version="1.0" encoding="utf-8"?>
<!-- Generator: Adobe Illustrator 22.1.0, SVG Export Plug-In . SVG Version: 6.00 Build 0)  -->
<svg version="1.1" id="Layer_1" xmlns="http://www.w3.org/2000/svg" xmlns:xlink="http://www.w3.org/1999/xlink" x="0px" y="0px"
	 viewBox="0 0 60 60" style="enable-background:new 0 0 60 60;" xml:space="preserve">
<style type="text/css">
	.st0{fill:#88898A;}
</style>
<g>
	<g>
		<g>
			<path class="st0" d="M46.7,0.5c-7,0-12.8,5.7-12.8,12.8s5.7,12.8,12.8,12.8s12.8-5.7,12.8-12.8S53.8,0.5,46.7,0.5z M53.6,14.3
				H39.8c-0.5,0-1-0.4-1-1c0-0.5,0.4-1,1-1h13.8c0.5,0,1,0.4,1,1C54.6,13.8,54.1,14.3,53.6,14.3z"/>
			<path class="st0" d="M8.4,53.6h11.8v-9.8H8.4C8.4,43.8,8.4,53.6,8.4,53.6z M11.3,45.7h5.9c0.5,0,1,0.4,1,1c0,0.5-0.4,1-1,1h-5.9
				c-0.5,0-1-0.4-1-1C10.3,46.2,10.8,45.7,11.3,45.7z M11.3,49.7h3.9c0.5,0,1,0.4,1,1s-0.4,1-1,1h-3.9c-0.5,0-1-0.4-1-1
				S10.8,49.7,11.3,49.7z"/>
			<path class="st0" d="M24.1,20.2c0.2,0,0.4,0.1,0.6,0.2L28,23V12.3h-7.9V23l3.3-2.7C23.7,20.2,23.9,20.2,24.1,20.2z"/>
			<path class="st0" d="M32,13.3c0-0.3,0-0.7,0.1-1h-2v10.9c0,0.7-0.4,1.4-1.1,1.7c-0.7,0.3-1.4,0.2-2-0.2l-2.9-2.3l-2.9,2.3
				c-0.3,0.3-0.8,0.4-1.2,0.4c-0.3,0-0.6-0.1-0.8-0.2c-0.7-0.3-1.1-1-1.1-1.7V12.3H5.4c-2.7,0-4.9,2.2-4.9,4.9v37.4
				c0,2.7,2.2,4.9,4.9,4.9h37.4c2.7,0,4.9-2.2,4.9-4.9V28c-0.3,0-0.7,0.1-1,0.1C38.6,28,32,21.4,32,13.3z M22.1,54.6
				c0,0.5-0.4,1-1,1H7.4c-0.5,0-1-0.4-1-1V42.8c0-0.5,0.4-1,1-1h13.8c0.5,0,1,0.4,1,1V54.6z"/>
		</g>
	</g>
</g>
</svg>
