<?xml version="1.0" encoding="utf-8"?>
<!-- Generator: Adobe Illustrator 22.1.0, SVG Export Plug-In . SVG Version: 6.00 Build 0)  -->
<svg version="1.1" id="Capa_1" xmlns="http://www.w3.org/2000/svg" xmlns:xlink="http://www.w3.org/1999/xlink" x="0px" y="0px"
	 viewBox="0 0 58 61.8" style="enable-background:new 0 0 58 61.8;" xml:space="preserve">
<style type="text/css">
	.st0{fill:#B3B3B3;}
	.st1{fill:none;stroke:#4A4A49;stroke-width:2;stroke-miterlimit:10;}
	.st2{fill:none;stroke:#4A4A49;stroke-width:2;stroke-linecap:round;stroke-linejoin:round;stroke-miterlimit:10;}
	.st3{fill:#33636C;stroke:#4A4A49;stroke-width:2;stroke-linecap:round;stroke-linejoin:round;stroke-miterlimit:10;}
</style>
<path class="st0" d="M49.4,8.9l-2,47.8c0,0-0.1,4.1-4,4.1H28.5h-0.1H14.6c-3.9,0-4-4.1-4-4.1l-2-47.8"/>
<path class="st1" d="M37.1,8.9c0,0,0.2-6.1-4.1-6.1h-5.1H28h-5.1c-4.2,0-4.1,6.1-4.1,6.1"/>
<line class="st2" x1="29" y1="19" x2="29" y2="52.6"/>
<line class="st2" x1="18.8" y1="19" x2="18.8" y2="52.6"/>
<line class="st2" x1="39.2" y1="19" x2="39.2" y2="52.6"/>
<line class="st3" x1="5.6" y1="8.9" x2="52.4" y2="8.9"/>
</svg>
